Clustering Web Readers With Kmeans
…
# Add cluster numbers back to original dataset
channel_cluster <- cbind(subs_wide, clusterNum = k2$cluster)

# View the data
head(channel_cluster, 50)

## # A tibble: 50 x 8
## # Groups:   sub_code [50]
##    sub_code arts_culture  blogs breakings_news classifieds environment
##    <chr>           <dbl>  <dbl>          <dbl>       <dbl>       <dbl>
##  1 AAC567        0.0649  0.0519          0.403      0.0779      0.0909
##  2 AAY248        0.167   0.0833          0.167      0.0833      0.417 
##  3 ABK221        0.0291  0.0388          0.350      0.0291      0.553 
##  4 ACZ249        0       0.615           0.154      0.0769      0.115 
##  5 ADC921        0.105   0.421           0.105      0.316       0     
##  6 ADP979        0.0952  0.667           0.143      0.0476      0     
##  7 AEO816        0.0923  0.0462          0.523      0.0769      0.154 
##  8 AEP844        0.00787 0.0551          0.260      0.0315      0.638 
##  9 AEX559        0.0275  0.0183          0.275      0.0275      0.642 
## 10 AFB691        0.111   0.0556          0.222      0.278       0.167 
## # ... with 40 more rows, and 2 more variables: sports <dbl>,
## #   clusterNum <int>
…
